{
  "brand": {
    "light": {
      "accent": {
        "100": {
          "value": "{seed.passion.100}",
          "type": "color"
        },
        "200": {
          "value": "{seed.passion.200}",
          "type": "color"
        },
        "300": {
          "value": "{seed.passion.600}",
          "type": "color"
        },
        "400": {
          "value": "{seed.passion.900}",
          "type": "color"
        },
        "500": {
          "value": "{seed.passion.1200}",
          "type": "color"
        },
        "600": {
          "value": "{seed.passion.1300}",
          "type": "color"
        },
        "700": {
          "value": "{seed.passion.1500}",
          "type": "color"
        },
        "800": {
          "value": "{seed.passion.1700}",
          "type": "color"
        }
      },
      "neutral": {
        "100": {
          "value": "{seed.cranberries.200}",
          "type": "color"
        },
        "200": {
          "value": "{seed.cranberries.300}",
          "type": "color"
        },
        "300": {
          "value": "{seed.cranberries.400}",
          "type": "color"
        },
        "400": {
          "value": "{seed.cranberries.700}",
          "type": "color"
        },
        "500": {
          "value": "{seed.cranberries.1700}",
          "type": "color"
        },
        "600": {
          "value": "{seed.cranberries.1800}",
          "type": "color"
        },
        "700": {
          "value": "{seed.cranberries.2000}",
          "type": "color"
        },
        "800": {
          "value": "{seed.cranberries.2100}",
          "type": "color"
        },
        "900": {
          "value": "{seed.cranberries.2200}",
          "type": "color"
        },
        "00": {
          "value": "{seed.cranberries.100}",
          "type": "color"
        }
      }
    },
    "dark": {
      "accent": {
        "100": {
          "value": "{seed.passion.2100}",
          "type": "color",
          "$extensions": {
            "studio.tokens": {}
          }
        },
        "200": {
          "value": "{seed.passion.2000}",
          "type": "color",
          "$extensions": {
            "studio.tokens": {}
          }
        },
        "300": {
          "value": "{seed.passion.1600}",
          "type": "color",
          "$extensions": {
            "studio.tokens": {}
          }
        },
        "400": {
          "value": "{seed.passion.1300}",
          "type": "color",
          "$extensions": {
            "studio.tokens": {}
          }
        },
        "500": {
          "value": "{seed.passion.1100}",
          "type": "color",
          "$extensions": {
            "studio.tokens": {}
          }
        },
        "600": {
          "value": "{seed.passion.1000}",
          "type": "color",
          "$extensions": {
            "studio.tokens": {}
          }
        },
        "700": {
          "value": "{seed.passion.800}",
          "type": "color",
          "$extensions": {
            "studio.tokens": {}
          }
        },
        "800": {
          "value": "{seed.passion.600}",
          "type": "color",
          "$extensions": {
            "studio.tokens": {}
          }
        }
      },
      "neutral": {
        "100": {
          "value": "{seed.cranberries.2100}",
          "type": "color",
          "$extensions": {
            "studio.tokens": {}
          }
        },
        "200": {
          "value": "{seed.cranberries.2000}",
          "type": "color",
          "$extensions": {
            "studio.tokens": {}
          }
        },
        "300": {
          "value": "{seed.cranberries.1900}",
          "type": "color",
          "$extensions": {
            "studio.tokens": {}
          }
        },
        "400": {
          "value": "{seed.cranberries.1700}",
          "type": "color",
          "$extensions": {
            "studio.tokens": {}
          }
        },
        "500": {
          "value": "{seed.cranberries.1100}",
          "type": "color",
          "$extensions": {
            "studio.tokens": {}
          }
        },
        "600": {
          "value": "{seed.cranberries.1000}",
          "type": "color",
          "$extensions": {
            "studio.tokens": {}
          }
        },
        "700": {
          "value": "{seed.cranberries.300}",
          "type": "color",
          "$extensions": {
            "studio.tokens": {}
          }
        },
        "800": {
          "value": "{seed.cranberries.200}",
          "type": "color",
          "$extensions": {
            "studio.tokens": {}
          }
        },
        "900": {
          "value": "{seed.cranberries.100}",
          "type": "color",
          "$extensions": {
            "studio.tokens": {}
          }
        },
        "00": {
          "value": "{seed.cranberries.2200}",
          "type": "color",
          "$extensions": {
            "studio.tokens": {}
          }
        }
      }
    },
    "corner": {
      "s": {
        "value": "{seed.borderradius.100}",
        "type": "borderRadius"
      },
      "base": {
        "value": "{seed.borderradius.400}",
        "type": "borderRadius"
      },
      "l": {
        "value": "{seed.borderradius.300}",
        "type": "borderRadius"
      }
    },
    "text": {
      "fontFamily": {
        "base": {
          "value": "{seed.fontFamily.sans.300}",
          "type": "fontFamilies"
        },
        "tittle": {
          "value": "{seed.fontFamily.sans.300}",
          "type": "fontFamilies"
        },
        "heading": {
          "value": "{seed.fontFamily.special.slab}",
          "type": "fontFamilies"
        }
      }
    }
  }
}